09-01-2020,85
09-02-2020,70
09-03-2020,92
09-04-2020,89
09-05-2020,39
09-06-2020,33
09-07-2020,69
09-08-2020,79
09-09-2020,89
09-10-2020,95
09-11-2020,70
09-12-2020,50
09-13-2020,50
09-14-2020,92
09-15-2020,76
09-16-2020,118
09-17-2020,107
09-18-2020,76
09-19-2020,56
09-20-2020,39
09-21-2020,123
09-22-2020,89
09-23-2020,93
09-24-2020,83
09-25-2020,90
09-26-2020,56
09-27-2020,42
09-28-2020,81
09-29-2020,40
09-01-2020,105
09-02-2020,82
09-03-2020,104
09-04-2020,113
09-05-2020,59
09-06-2020,42
09-07-2020,89
09-08-2020,86
09-09-2020,107
09-10-2020,148
09-11-2020,82
09-12-2020,58
09-13-2020,66
09-14-2020,110
09-15-2020,100
09-16-2020,135
09-17-2020,157
09-18-2020,90
09-19-2020,67
09-20-2020,55
09-21-2020,154
09-22-2020,129
09-23-2020,118
09-24-2020,107
09-25-2020,99
09-26-2020,69
09-27-2020,49
09-28-2020,98
09-29-2020,53
09-01-2020,44
09-02-2020,263
09-03-2020,256
09-04-2020,228
09-05-2020,249
09-06-2020,456
09-07-2020,112
09-08-2020,50
09-09-2020,275
09-10-2020,124
09-11-2020,29
09-12-2020,11
09-13-2020,45
09-14-2020,91
09-15-2020,69
09-16-2020,68
09-17-2020,25
09-18-2020,69
09-19-2020,48
09-20-2020,20
09-21-2020,115
09-22-2020,79
09-23-2020,67
09-24-2020,71
09-25-2020,139
09-26-2020,36
09-27-2020,498
09-28-2020,146
09-29-2020,58
09-01-2020,88
09-02-2020,89
09-03-2020,90
09-04-2020,88
09-05-2020,85
09-06-2020,85
09-07-2020,87
09-08-2020,92
09-09-2020,89
09-10-2020,84
09-11-2020,87
09-12-2020,90
09-13-2020,86
09-14-2020,88
09-15-2020,83
09-16-2020,92
09-17-2020,84
09-18-2020,92
09-19-2020,89
09-20-2020,82
09-21-2020,89
09-22-2020,81
09-23-2020,88
09-24-2020,88
09-25-2020,93
09-26-2020,86
09-27-2020,93
09-28-2020,88
09-29-2020,85
